<?xml version="1.0" encoding="UTF-8" standalone="no"?>
<svg
   xmlns:osb="http://www.openswatchbook.org/uri/2009/osb"
   xmlns:dc="http://purl.org/dc/elements/1.1/"
   xmlns:cc="http://creativecommons.org/ns#"
   xmlns:rdf="http://www.w3.org/1999/02/22-rdf-syntax-ns#"
   xmlns:svg="http://www.w3.org/2000/svg"
   xmlns="http://www.w3.org/2000/svg"
   xmlns:sodipodi="http://sodipodi.sourceforge.net/DTD/sodipodi-0.dtd"
   xmlns:inkscape="http://www.inkscape.org/namespaces/inkscape"
   width="147.64604mm"
   height="64.823776mm"
   viewBox="0 0 147.64604 64.823776"
   version="1.1"
   id="svg8"
   inkscape:version="1.0.1 (3bc2e813f5, 2020-09-07)"
   sodipodi:docname="refroid_laser.svg">
  <defs
     id="defs2">
    <marker
       style="overflow:visible"
       id="marker1675"
       refX="0"
       refY="0"
       orient="auto"
       inkscape:stockid="Arrow1Lend"
       inkscape:isstock="true">
      <path
         transform="matrix(-0.8,0,0,-0.8,-10,0)"
         style="fill:#000000;fill-opacity:1;fill-rule:evenodd;stroke:#000000;stroke-width:1pt;stroke-opacity:1"
         d="M 0,0 5,-5 -12.5,0 5,5 Z"
         id="path1673" />
    </marker>
    <marker
       style="overflow:visible"
       id="marker1197"
       refX="0"
       refY="0"
       orient="auto"
       inkscape:stockid="Arrow1Lend"
       inkscape:isstock="true"
       inkscape:collect="always">
      <path
         transform="matrix(-0.8,0,0,-0.8,-10,0)"
         style="fill:#000000;fill-opacity:1;fill-rule:evenodd;stroke:#000000;stroke-width:1pt;stroke-opacity:1"
         d="M 0,0 5,-5 -12.5,0 5,5 Z"
         id="path1195" />
    </marker>
    <marker
       style="overflow:visible"
       id="Arrow1Lend"
       refX="0"
       refY="0"
       orient="auto"
       inkscape:stockid="Arrow1Lend"
       inkscape:isstock="true"
       inkscape:collect="always">
      <path
         transform="matrix(-0.8,0,0,-0.8,-10,0)"
         style="fill:#000000;fill-opacity:1;fill-rule:evenodd;stroke:#000000;stroke-width:1pt;stroke-opacity:1"
         d="M 0,0 5,-5 -12.5,0 5,5 Z"
         id="path870" />
    </marker>
    <marker
       style="overflow:visible"
       id="marker1145"
       refX="0"
       refY="0"
       orient="auto"
       inkscape:stockid="Arrow1Lstart"
       inkscape:isstock="true">
      <path
         transform="matrix(0.8,0,0,0.8,10,0)"
         style="fill:#000000;fill-opacity:1;fill-rule:evenodd;stroke:#000000;stroke-width:1pt;stroke-opacity:1"
         d="M 0,0 5,-5 -12.5,0 5,5 Z"
         id="path1143" />
    </marker>
    <marker
       style="overflow:visible"
       id="Arrow1Lstart"
       refX="0"
       refY="0"
       orient="auto"
       inkscape:stockid="Arrow1Lstart"
       inkscape:isstock="true">
      <path
         transform="matrix(0.8,0,0,0.8,10,0)"
         style="fill:#000000;fill-opacity:1;fill-rule:evenodd;stroke:#000000;stroke-width:1pt;stroke-opacity:1"
         d="M 0,0 5,-5 -12.5,0 5,5 Z"
         id="path867" />
    </marker>
    <linearGradient
       id="linearGradient843"
       osb:paint="solid">
      <stop
         style="stop-color:#000000;stop-opacity:1;"
         offset="0"
         id="stop841" />
    </linearGradient>
    <marker
       style="overflow:visible"
       id="marker1197-2"
       refX="0"
       refY="0"
       orient="auto"
       inkscape:stockid="Arrow1Lend"
       inkscape:isstock="true">
      <path
         transform="matrix(-0.8,0,0,-0.8,-10,0)"
         style="fill:#000000;fill-opacity:1;fill-rule:evenodd;stroke:#000000;stroke-width:1pt;stroke-opacity:1"
         d="M 0,0 5,-5 -12.5,0 5,5 Z"
         id="path1195-6" />
    </marker>
  </defs>
  <sodipodi:namedview
     id="base"
     pagecolor="#ffffff"
     bordercolor="#666666"
     borderopacity="1.0"
     inkscape:pageopacity="0.0"
     inkscape:pageshadow="2"
     inkscape:zoom="1.4"
     inkscape:cx="278.63678"
     inkscape:cy="248.61638"
     inkscape:document-units="mm"
     inkscape:current-layer="layer1"
     inkscape:document-rotation="0"
     showgrid="false"
     inkscape:window-width="1842"
     inkscape:window-height="1051"
     inkscape:window-x="9"
     inkscape:window-y="38"
     inkscape:window-maximized="0" />
  <metadata
     id="metadata5">
    <rdf:RDF>
      <cc:Work
         rdf:about="">
        <dc:format>image/svg+xml</dc:format>
        <dc:type
           rdf:resource="http://purl.org/dc/dcmitype/StillImage" />
        <dc:title></dc:title>
      </cc:Work>
    </rdf:RDF>
  </metadata>
  <g
     inkscape:label="Layer 1"
     inkscape:groupmode="layer"
     id="layer1"
     transform="translate(-2.9774632,-3.7190318)">
    <text
       xml:space="preserve"
       style="font-style:normal;font-weight:normal;font-size:10.5833px;line-height:1.25;font-family:sans-serif;fill:#000000;fill-opacity:1;stroke:none;stroke-width:0.264583"
       x="13.363476"
       y="11.759859"
       id="text12"><tspan
         sodipodi:role="line"
         id="tspan10"
         x="13.363476"
         y="11.759859"
         style="stroke-width:0.264583">Instant $t$</tspan></text>
    <rect
       style="fill:#e84108;fill-opacity:0.0254777;fill-rule:evenodd;stroke-width:0.264583"
       id="rect14"
       width="70.826424"
       height="9.3544331"
       x="32.228905"
       y="16.72632" />
    <rect
       style="fill:#000000;fill-opacity:0.165605;fill-rule:evenodd;stroke:none;stroke-width:0.265;stroke-miterlimit:4;stroke-dasharray:none;stroke-opacity:1"
       id="rect16"
       width="47.568184"
       height="9.3540373"
       x="103.05532"
       y="16.72632" />
    <text
       xml:space="preserve"
       style="font-style:normal;font-weight:normal;font-size:6.35px;line-height:1.25;font-family:sans-serif;fill:#000000;fill-opacity:1;stroke:none;stroke-width:0.264583"
       x="4.0319705"
       y="23.675325"
       id="text849"><tspan
         id="tspan847"
         x="4.0319705"
         y="23.675325"
         style="font-size:6.35px;stroke-width:0.264583"
         sodipodi:role="line">faisceau</tspan></text>
    <text
       xml:space="preserve"
       style="font-style:normal;font-weight:normal;font-size:6.35px;line-height:1.25;font-family:sans-serif;fill:#000000;fill-opacity:1;stroke:none;stroke-width:0.264583"
       x="119.62605"
       y="23.808958"
       id="text853"><tspan
         sodipodi:role="line"
         id="tspan851"
         x="119.62605"
         y="23.808958"
         style="font-size:6.35px;stroke-width:0.264583">laser</tspan></text>
    <ellipse
       style="fill:#ff0000;fill-opacity:1;stroke:none;stroke-width:0.264999;stroke-miterlimit:4;stroke-dasharray:none;stroke-opacity:1"
       id="path855"
       cx="93.166359"
       cy="21.737623"
       rx="1.7372519"
       ry="1.6370258" />
    <path
       style="fill:none;stroke:#000000;stroke-width:0.265;stroke-linecap:butt;stroke-linejoin:miter;stroke-miterlimit:4;stroke-dasharray:none;stroke-opacity:1;marker-end:url(#Arrow1Lend)"
       d="M 93.407366,21.922618 77.201637,21.875372"
       id="path865" />
    <ellipse
       style="fill:#170000;fill-opacity:1;stroke:none;stroke-width:0.264999;stroke-miterlimit:4;stroke-dasharray:none;stroke-opacity:1"
       id="path1191"
       cx="38.364586"
       cy="21.686388"
       rx="1.5119048"
       ry="1.4646577" />
    <path
       style="fill:none;stroke:#000000;stroke-width:0.265;stroke-linecap:butt;stroke-linejoin:miter;stroke-miterlimit:4;stroke-dasharray:none;stroke-opacity:1;marker-end:url(#marker1197)"
       d="m 39.120534,21.922618 14.363097,-0.09449"
       id="path1193" />
    <text
       xml:space="preserve"
       style="font-style:normal;font-weight:normal;font-size:4.23333px;line-height:1.25;font-family:sans-serif;fill:#000000;fill-opacity:1;stroke:none;stroke-width:0.264583"
       x="36.237949"
       y="31.559778"
       id="text1237"><tspan
         sodipodi:role="line"
         id="tspan1235"
         x="36.237949"
         y="31.559778"
         style="font-size:4.23333px;stroke-width:0.264583">$\vec{v}$</tspan></text>
    <text
       xml:space="preserve"
       style="font-style:normal;font-weight:normal;font-size:10.5833px;line-height:1.25;font-family:sans-serif;fill:#000000;fill-opacity:1;stroke:none;stroke-width:0.264583"
       x="1.9387702"
       y="46.521587"
       id="text12-1"><tspan
         sodipodi:role="line"
         id="tspan10-8"
         x="1.9387702"
         y="46.521587"
         style="stroke-width:0.264583">Instant $t+\Delta t$</tspan></text>
    <rect
       style="fill:#e84108;fill-opacity:0.0254777;fill-rule:evenodd;stroke-width:0.264583"
       id="rect14-7"
       width="70.826424"
       height="9.3544331"
       x="31.009554"
       y="54.889839" />
    <rect
       style="fill:#000000;fill-opacity:0.165605;fill-rule:evenodd;stroke:none;stroke-width:0.264999;stroke-miterlimit:4;stroke-dasharray:none;stroke-opacity:1"
       id="rect16-9"
       width="47.568184"
       height="9.3540382"
       x="101.83598"
       y="54.889839" />
    <text
       xml:space="preserve"
       style="font-style:normal;font-weight:normal;font-size:6.35px;line-height:1.25;font-family:sans-serif;fill:#000000;fill-opacity:1;stroke:none;stroke-width:0.264583"
       x="118.4067"
       y="61.972466"
       id="text853-2"><tspan
         sodipodi:role="line"
         id="tspan851-0"
         x="118.4067"
         y="61.972466"
         style="font-size:6.35px;stroke-width:0.264583">laser</tspan></text>
    <ellipse
       style="fill:#170000;fill-opacity:1;stroke:none;stroke-width:0.264999;stroke-miterlimit:4;stroke-dasharray:none;stroke-opacity:1"
       id="path1191-7"
       cx="54.626633"
       cy="59.377426"
       rx="1.5119048"
       ry="1.4646577" />
    <text
       xml:space="preserve"
       style="font-style:normal;font-weight:normal;font-size:4.23333px;line-height:1.25;font-family:sans-serif;fill:#000000;fill-opacity:1;stroke:none;stroke-width:0.264583"
       x="47.580265"
       y="67.852409"
       id="text1237-9"><tspan
         sodipodi:role="line"
         id="tspan1235-2"
         x="47.580265"
         y="67.852409"
         style="font-size:4.23333px;stroke-width:0.264583">$\vec{v'}$</tspan></text>
    <path
       style="fill:none;stroke:#000000;stroke-width:0.264583px;stroke-linecap:butt;stroke-linejoin:miter;stroke-opacity:1;marker-end:url(#marker1675)"
       d="m 54.995535,59.436757 6.331101,-0.0945"
       id="path1671" />
    <text
       xml:space="preserve"
       style="font-style:normal;font-weight:normal;font-size:6.35px;line-height:1.25;font-family:sans-serif;fill:#000000;fill-opacity:1;stroke:none;stroke-width:0.264583"
       x="2.8339355"
       y="61.142597"
       id="text849-3"><tspan
         id="tspan847-6"
         x="2.8339355"
         y="61.142597"
         style="font-size:6.35px;stroke-width:0.264583"
         sodipodi:role="line">faisceau</tspan></text>
  </g>
</svg>
